copacabana,1800,200,2023-08-21
copacabana,1000,100,2023-08-01
ipanema,800,50,2023-08-01
ipanema,850,52,2023-08-11
leblon,950,75,2023-08-01
leblon,1010,85,2023-08-02
leblon,1012,90,2023-08-03
santa teresa,300,15,2023-08-01
santa teresa,320,16,2023-08-04
ipanema,1000,120,2023-08-30
lapa,700,40,2023-08-05
lapa,750,45,2023-08-25
flamengo,1100,80,2023-08-10
flamengo,1050,75,2023-08-20
botafogo,900,65,2023-08-12
botafogo,920,68,2023-08-22
glória,500,25,2023-08-07
glória,510,26,2023-08-17
cinelândia,850,55,2023-08-10
cinelândia,880,58,2023-08-20
laranjeiras,780,45,2023-08-07
laranjeiras,800,48,2023-08-17
laranjeiras,820,51,2023-08-27
